SIR Model
…
  list(
    data = data,
    initial_values = as.list(initial_values),
    parameters = as.list(parameters)
  ) |>
  invisible()
}

Code
sir() |> magrittr::extract2("data")
#> # A tibble: 1,001 × 4
#>    time     s      i        r
#>   <dbl> <dbl>  <dbl>    <dbl>
#> 1  0    1     0.05   0       
#> 2  0.01 0.998 0.0510 0.000505
#> 3  0.02 0.997 0.0520 0.00102 
#> 4  0.03 0.995 0.0531 0.00155 
#> 5  0.04 0.994 0.0541 0.00208 
#> 6  0.05 0.992 0.0552 0.00263 
#> # ℹ 995 more rows
…
